Assignment 1 ETC1010 - 5510
…
  head(crime_long_new,3)                        # 1pt

## # A tibble: 3 x 6
##   Suburb  Offence_category Subcategory Month Year  incidents
##   <chr>   <chr>            <chr>       <chr> <chr>     <dbl>
## 1 Chifley Homicide         Murder *    Feb   2010          0
## 2 Chifley Homicide         Murder *    Mar   2010          0
## 3 Chifley Homicide         Murder *    Apr   2010          0

Question 7: If you look at the data crime_long_new, you will notice that the variable of Year is coded as character. In this section, we are going to convert the variable of Year to a numeric variable

crime_long_new %>%
  mutate(Year = as.numeric(Year))   # 1pt

## # A tibble: 118,048 x 6
##    Suburb  Offence_category Subcategory Month  Year incidents
##    <chr>   <chr>            <chr>       <chr> <dbl>     <dbl>
##  1 Chifley Homicide         Murder *    Feb    2010         0
##  2 Chifley Homicide         Murder *    Mar    2010         0
##  3 Chifley Homicide         Murder *    Apr    2010         0
##  4 Chifley Homicide         Murder *    May    2010         0
##  5 Chifley Homicide         Murder *    Jun    2010         0
##  6 Chifley Homicide         Murder *    Jul    2010         0
##  7 Chifley Homicide         Murder *    Aug    2010         0
##  8 Chifley Homicide         Murder *    Sep    2010         0
##  9 Chifley Homicide         Murder *    Oct    2010         0
## 10 Chifley Homicide         Murder *    Nov    2010         0
## #  with 118,038 more rows
…
length(unique(crime_long_new$Suburb))     # 1pt

## [1] 16

n_distinct(crime_long_new$Suburb) # 1pt 

## [1] 16

Question 10: How many incidents do we have per Offence_category in total for 2019?

crime_long_new %>% 
  dplyr::filter(Year == "2019") %>%    # 1pt
  count(Offence_category , wt = incidents)              # 1pt

## # A tibble: 21 x 2
##    Offence_category                          n
##    <chr>                                 <dbl>
##  1 Abduction and kidnapping                  1
##  2 Against justice procedures             1950
##  3 Arson                                    60
##  4 Assault                                1396
##  5 Betting and gaming offences               1
##  6 Blackmail and extortion                   2
##  7 Disorderly conduct                      429
##  8 Drug offences                          1416
##  9 Homicide                                  2
## 10 Intimidation, stalking and harassment   566
## #  with 11 more rows

Question 11: Which is the Offence_category with highest number of incidents in 2019?

crime_long_new %>% 
  dplyr::filter(Year == "2019") %>%    #  1pt
  count(Offence_category, wt = incidents, sort = TRUE) # 1pt

## # A tibble: 21 x 2
##    Offence_category                          n
##    <chr>                                 <dbl>
##  1 Theft                                  4061
##  2 Against justice procedures             1950
##  3 Drug offences                          1416
##  4 Assault                                1396
##  5 Malicious damage to property           1093
##  6 Intimidation, stalking and harassment   566
##  7 Transport regulatory offences           517
##  8 Disorderly conduct                      429
##  9 Liquor offences                         356
## 10 Sexual offences                         273
## #  with 11 more rows
…
Question 24: Transform the data set named comparison_data into a wide format where the suburbs of Coogee, Redfern, and Zetland are displayed as columns

  comparison_data %>%
   pivot_wider(id_cols = 1:3,   # 1pt
               names_from = Suburb,  # 1pt
               values_from = Year)   # 1pt

## # A tibble: 30 x 4
##    Number_of_incidents Coogee Redfern Zetland
##                  <dbl> <chr>  <chr>   <chr>  
##  1                 897 2010   <NA>    <NA>   
##  2                1189 2011   <NA>    <NA>   
##  3                 877 2012   <NA>    <NA>   
##  4                 885 2013   <NA>    <NA>   
##  5                 762 2014   <NA>    <NA>   
##  6                 912 2015   <NA>    <NA>   
##  7                1016 2016   <NA>    <NA>   
##  8                1011 2017   <NA>    <NA>   
##  9                1013 2018   <NA>    <NA>   
## 10                1119 2019   <NA>    <NA>   
## #  with 20 more rows
